Id,SalePrice
1461,120211.6752346445
1462,155980.53209068425
1463,180423.82838522797
1464,175167.5330521863
1465,195433.68545962803
1466,164966.61558057708
1467,173648.20383710967
1468,158642.36013738273
1469,191313.1160233839
1470,117713.24204840226
1471,196677.19553447177
1472,87209.63947545184
1473,91427.37962421846
1474,153587.74879743345
1475,128905.28545577597
1476,356515.4770216063
1477,226950.61849936095
1478,288585.7569867674
1479,289928.78772780823
1480,506289.02945826395
1481,351901.206999788
1482,210949.02804712887
1483,180279.6240211821
1484,175507.610913771
1485,176581.2251395333
1486,190725.89220239248
1487,349011.20223076275
1488,226395.3808730366
1489,186124.6662309878
1490,204049.93175970536
1491,195891.47117683623
1492,95760.80491475548
1493,184593.73564439075
1494,295772.8812667655
1495,300308.18415077886
1496,223578.13622940448
1497,188542.50095120588
1498,165343.35787412757
1499,158544.08291818426
1500,146552.3780994466
1501,179446.65931789795
1502,148886.63933515898
1503,268643.4887648257
1504,231504.090454345
1505,213535.71071042836
1506,178172.21902162937
1507,243811.22807553477
1508,209677.78959279813
1509,156945.2670146926
1510,144121.14697996766
1511,150643.89621694898
1512,174857.8457911925
1513,135631.13022979329
1514,158059.22093628882
1515,191721.3847372785
1516,166847.04863376523
1517,160073.4681361982
1518,141403.56383097882
1519,209213.38487358778
1520,127881.08509208453
1521,124680.0662025681
1522,168402.49280327544
1523,107418.2613142364
1524,124636.23126997326
1525,118872.03967305028
1526,125941.78548943409
1527,115521.02079088519
1528,132693.88549744088
1529,147092.61335971806
1530,176881.96888737043
1531,117493.60046185553
1532,106591.34198247014
1533,153635.6909518623
1534,119527.31980763035
1535,147180.29484789973
1536,116516.15090440045
1537,64555.24586529269
1538,152794.59859547205
1539,197923.95266361078
1540,93892.39250209725
1541,139926.45902246563
1542,132477.137699962
1543,191228.91859641016
1544,85921.47508745622
1545,108289.18342456082
1546,135635.4042617292
1547,127303.30154053305
1548,130731.43246421668
1549,107125.09759551307
1550,132072.66625956623
1551,118316.68663800016
1552,133901.68928313346
1553,130175.351431238
1554,116471.44180387145
1555,174616.90350480698
1556,91640.98523891887
1557,99451.16957034901
1558,91125.21008086392
1559,54915.23906935446
1560,170023.13391903313
1561,110190.32552265053
1562,129248.9106856488
1563,119233.48643751688
1564,156748.74618927314
1565,142716.82360745902
1566,255983.19544278187
1567,71447.07977553178
1568,237872.49423583885
1569,135314.36031019836
1570,134548.12787371638
1571,131045.01738703124
1572,149492.16484720598
1573,234719.00406025973
1574,118365.87774478296
1575,220024.0033071687
1576,239105.06065560094
1577,186030.8356597315
1578,141607.42030192245
1579,141631.23211667276
1580,187425.94961077257
1581,160940.55725449903
1582,129200.96250147285
1583,307017.2753677674
1584,225049.88204543196
1585,142634.47945722425
1586,71269.92142029197
1587,101272.98455974949
1588,152878.24195704932
1589,100005.99084526022
1590,137614.422857819
1591,95308.85338812465
1592,122196.55313520727
1593,130784.13717451182
1594,136640.36101799313
1595,107826.05241883764
1596,275053.0937670741
1597,219777.40672878077
1598,224780.07644274557
1599,179482.43404955228
1600,182590.57446477254
1601,65273.070489156766
1602,103713.4191006302
1603,64337.484260340614
1604,289042.79595244915
1605,261299.09314154906
1606,169137.97276695387
1607,156047.68271877713
1608,206330.076142977
1609,178293.88736371987
1610,140600.65096957982
1611,147583.6988096124
1612,178178.43461596905
1613,158434.28543985268
1614,134298.87884620184
1615,84904.93564434901
1616,73642.17017121363
1617,87854.81731843312
1618,121661.53599121027
1619,138213.569034718
1620,146820.1747671757
1621,133905.51423520356
1622,135202.35490418033
1623,280500.57896940835
1624,222517.19892716492
1625,113092.85739037408
1626,164405.70108688844
1627,178815.29453479653
1628,284673.2358397481
1629,166488.26250972174
1630,345577.8186831434
1631,206466.58730488998
1632,238180.08105816582
1633,165232.9610784022
1634,185268.9539412604
1635,173724.84728327562
1636,156642.18875239594
1637,200486.37166272497
1638,196496.20745634308
1639,166668.84812674005
1640,252807.32242756285
1641,157600.23979631372
1642,230846.44342447122
1643,225136.65593257494
1644,223268.00223139333
1645,184673.74289907384
1646,163267.28132857688
1647,157729.785699937
1648,130985.7715752024
1649,148885.11452523858
1650,119737.67832833783
1651,117857.19930447525
1652,91579.6162244731
1653,95828.27505278919
1654,155826.3964792656
1655,156577.22657581218
1656,155160.80053660308
1657,158942.26627177282
1658,159408.0621508649
1659,131990.13912326103
1660,156445.32662549187
1661,454548.75811598846
1662,369752.65101074707
1663,368487.19463574066
1664,542993.5158096427
1665,291377.08397585305
1666,347045.7552660063
1667,377280.5486197722
1668,340186.90766041615
1669,305658.98644286866
1670,329302.9594498581
1671,237419.08147421863
1672,440580.2340332292
1673,283271.6332129629
1674,224441.68273221978
1675,193850.62059932676
1676,193471.0868097063
1677,198058.96638073522
1678,533449.8056228502
1679,389311.5251073567
1680,308958.2202927508
1681,245322.83467818698
1682,327472.1890316291
1683,182950.91912383778
1684,172713.50830472622
1685,178832.78937075217
1686,186842.4357490509
1687,168016.10753035438
1688,187117.9094800876
1689,191627.0221089167
1690,191581.0223201652
1691,177896.22776745688
1692,268725.32464193046
1693,169732.7450825165
1694,177130.5081997218
1695,158855.7386317581
1696,280282.6759935934
1697,155771.45533567472
1698,334493.25452587736
1699,284436.7967374347
1700,242996.30161820157
1701,263027.21038166416
1702,242951.9092096603
1703,245477.2266030149
1704,285284.7818225496
1705,230391.93658796145
1706,454185.7688617005
1707,197974.43631083213
1708,185202.9743785928
1709,254906.67512844375
1710,215067.3463236552
1711,266427.52331436554
1712,227351.66748211073
1713,252686.39897489347
1714,208758.62821640418
1715,204636.2224324071
1716,181309.9364171592
1717,172659.30969704664
1718,126138.57400891122
1719,205877.6675350585
1720,247493.18081971578
1721,169458.0016221348
1722,121566.76932925737
1723,154722.67011932656
1724,206086.63751828542
1725,231161.1452722085
1726,193982.52430655787
1727,167678.0809463568
1728,189932.98177888858
1729,161202.87104960255
1730,160552.6472817027
1731,125649.3508417913
1732,130922.8948217199
1733,114087.42183506928
1734,127958.81421781133
1735,142160.6141200198
1736,121581.46338410297
1737,353190.2000478933
1738,226681.30267950322
1739,290041.10044774495
1740,205554.4001812165
1741,182725.71238431835
1742,174078.58449671709
1743,176396.30898102955
1744,326729.36222450924
1745,229192.1097546767
1746,212319.91964357087
1747,206496.1008340485
1748,207481.258564592
1749,161579.08918145837
1750,143523.81086567335
1751,246338.27189557592
1752,121161.08521939242
1753,142744.34252653256
1754,200743.04843980022
1755,178966.4187138629
1756,126379.68923248844
1757,121454.48289805953
1758,140975.76957166378
1759,152898.64727473134
1760,160187.39943264914
1761,147977.82095313992
1762,173807.16921415925
1763,176507.50710404455
1764,120295.00757811443
1765,173741.18823942848
1766,170340.62922268134
1767,199608.4591588077
1768,141651.90344314277
1769,172583.10411103684
1770,150866.95622065544
1771,133364.74697998364
1772,143380.33684173974
1773,129955.14231420838
1774,144092.72199541423
1775,139928.81202755703
1776,116071.34322183998
1777,111662.82954432262
1778,144831.0042885874
1779,110226.93574770498
1780,182059.91477497804
1781,130960.51525377143
1782,93620.8278679087
1783,143691.83979623482
1784,103073.96986713563
1785,129358.95683453786
1786,170204.79514696987
1787,181665.15050962646
1788,57600.16168783648
1789,101987.56297849279
1790,82939.81902504097
1791,188256.89013376337
1792,153011.2091505884
1793,126506.13308977614
1794,158687.2725991773
1795,132450.79228915254
1796,121920.96086517272
1797,122180.23618475396
1798,120777.22960407997
1799,106881.29434596622
1800,126681.57563797075
1801,123269.91947060027
1802,145827.00994573423
1803,143488.80512877973
1804,155634.66651725592
1805,135092.45921675433
1806,118857.14075940513
1807,138345.5162753826
1808,123634.0424608191
1809,113361.04193235819
1810,135433.07481513283
1811,84042.09596523557
1812,87422.737842415
1813,121486.21683706684
1814,94430.06489455637
1815,59848.82538618502
1816,97613.58611271523
1817,116269.29626731612
1818,149947.77683711614
1819,125353.87642561617
1820,48950.36708530548
1821,117759.17380377419
1822,147096.67217251114
1823,35497.120772698756
1824,124833.33228224679
1825,139960.9046765061
1826,101200.59256406742
1827,106762.40606571645
1828,129214.05340311519
1829,136879.4448992092
1830,139321.52858642407
1831,137097.6435999074
1832,84095.5454790033
1833,131360.95707600485
1834,120601.89815211351
1835,119504.24819667643
1836,124443.17364676525
1837,103597.19963764344
1838,134951.94049637625
1839,94148.7083671626
1840,144010.62876216733
1841,146269.87734541792
1842,85646.93231315484
1843,133361.35702828655
1844,137897.6231570023
1845,137232.90350559037
1846,160208.54130429323
1847,160288.448726528
1848,50181.58655224343
1849,116289.52886219439
1850,124823.85441839458
1851,156336.99519553344
1852,134322.71088750323
1853,143056.96109510044
1854,176963.60989595455
1855,167953.55378846943
1856,224468.31180952475
1857,176797.12433068748
1858,142145.14444809715
1859,121871.91562388853
1860,163223.07218552136
1861,121744.99322323172
1862,310271.9993480586
1863,310271.9993480586
1864,310271.9993480586
1865,341946.5933303951
1866,354522.259735903
1867,235439.4810691251
1868,284521.31086222624
1869,206524.91605248008
1870,236301.89003867883
1871,264079.06366118276
1872,171614.18504484693
1873,249506.37032624474
1874,135751.20645998995
1875,202889.5388949961
1876,190591.10481438023
1877,203695.95494426473
1878,212750.80012648046
1879,132045.41111835308
1880,135249.8530031619
1881,249207.87987615875
1882,243620.18094086327
1883,194307.23266557118
1884,207542.7350220475
1885,267986.6669429306
1886,290295.97147349286
1887,215595.47092485437
1888,272488.8209452597
1889,154162.80503730578
1890,119887.09901763401
1891,132955.45712277046
1892,103884.8582366675
1893,125712.25916251022
1894,123404.0168265848
1895,141297.7899081056
1896,128241.5235567348
1897,119964.95848455821
1898,113459.4424464563
1899,173566.6461686968
1900,160983.4119560082
1901,199338.10716035697
1902,153148.232879258
1903,244120.9835661292
1904,169222.3119691666
1905,202548.08793673993
1906,173613.584115368
1907,225056.95572079092
1908,98566.11306381687
1909,130770.80405862097
1910,114953.18326035333
1911,213351.96987828496
1912,357525.615274766
1913,135698.71865793562
1914,38807.40119115375
1915,319149.47830302827
1916,72238.01540707858
1917,256406.89461884397
1918,137548.15774326588
1919,174465.16294403942
1920,160669.92394235334
1921,407445.8022076886
1922,346895.08004382503
1923,212940.89981049474
1924,234790.74814278202
1925,210877.8252488823
1926,395693.8901258996
1927,130876.065069047
1928,147636.7008377623
1929,129242.40303064784
1930,129852.68676072682
1931,138637.10260797842
1932,129252.99081152429
1933,185151.57053621064
1934,165772.41919998397
1935,160039.78515012414
1936,180743.7489093
1937,180715.5720639925
1938,180985.2833350114
1939,257759.5488804364
1940,193685.76279634106
1941,165551.3356649312
1942,189115.7865564231
1943,214666.26816700873
1944,349467.0766739691
1945,381264.98385166016
1946,123660.35545675566
1947,318534.22055509925
1948,167860.41770072657
1949,248171.97851589374
1950,197071.11369429086
1951,249715.67423971833
1952,235011.9551921812
1953,161529.6539900445
1954,188488.98475858642
1955,133389.11558299122
1956,369652.0526780862
1957,152037.25235771437
1958,318893.71460491174
1959,160462.27003454723
1960,116469.17068048925
1961,124418.23676800783
1962,94725.47492560439
1963,98143.17093451749
1964,106716.1656778307
1965,157958.1357573366
1966,151909.32379429712
1967,275723.2484371951
1968,440773.82851256133
1969,412985.60855055467
1970,465442.5937347186
1971,509221.91993443103
1972,385907.49925496185
1973,271238.29550393374
1974,324761.39806936105
1975,513843.60481680854
1976,266491.7348996255
1977,365097.827031186
1978,382979.75381667784
1979,311935.3514896763
1980,198548.07585374377
1981,329985.93824956456
1982,213393.59551266098
1983,203706.68314751683
1984,175985.0954387027
1985,228254.44433731074
1986,212017.32459765262
1987,185312.70091516277
1988,175581.34753134692
1989,188481.3293038622
1990,208800.28990733664
1991,202767.2855348303
1992,214972.31091864879
1993,168814.16269078106
1994,225674.6686277944
1995,175814.8405885171
1996,237579.0036080032
1997,332717.3646556594
1998,307870.16440281406
1999,256240.7736731306
2000,323900.26290564105
2001,272088.0944966457
2002,237116.6479315271
2003,262555.77955847303
2004,266860.86371634406
2005,224104.16566569736
2006,205775.96430005794
2007,241542.77452346368
2008,186062.014808541
2009,195841.71677274906
2010,194594.19783873702
2011,132279.88587707767
2012,179769.71528046217
2013,180321.30959029522
2014,191774.75320954088
2015,212462.37991502194
2016,194123.56675377302
2017,202239.93992983864
2018,121831.58724589933
2019,134240.59224932521
2020,110439.09806602301
2021,117553.7023431087
2022,179578.36911967857
2023,146980.64854228307
2024,240957.74199891873
2025,382033.42438923643
2026,180167.89902616842
2027,150159.79890983083
2028,155492.72728434805
2029,156224.3664803134
2030,266862.8439280196
2031,249556.3677351436
2032,262554.63840967545
2033,261238.60423848618
2034,163702.5827716197
2035,193975.29534325
2036,195523.85687374
2037,196137.19047956745
2038,333844.48076593195
2039,206776.833251546
2040,304384.3020107054
2041,314237.9006140756
2042,196759.01870347917
2043,173769.3771756516
2044,166663.1932971268
2045,216223.47878523686
2046,154423.40447856323
2047,146020.59397227134
2048,141896.23939015227
2049,141610.42041397694
2050,173758.6559882989
2051,99685.92947960763
2052,131095.24183169688
2053,145784.97700172174
2054,88120.543844073
2055,148541.49109351623
2056,132489.5737051536
2057,125453.451647119
2058,234611.7129244118
2059,128605.81649478781
2060,154330.2202271899
2061,174702.34274742485
2062,132709.54212863598
2063,118748.01429543913
2064,137889.11391572707
2065,111286.75535186916
2066,156537.42678999127
2067,117875.63353631238
2068,139354.9533172659
2069,86862.791638054
2070,115721.5305100566
2071,100142.60629561427
2072,153572.72722000058
2073,140090.29961405764
2074,181600.11739649094
2075,141463.2006561531
2076,120457.35431460803
2077,147154.65296378295
2078,125886.63020414271
2079,144468.21558837005
2080,121467.58783140643
2081,120679.11957757596
2082,122870.07302509951
2083,147542.91487056128
2084,114041.04091643312
2085,126027.57582341625
2086,96281.17259089631
2087,120830.14535728854
2088,92137.488209897
2089,72632.93319038315
2090,133729.37835258443
2091,107819.39951148399
2092,123334.59998226496
2093,118521.83372184608
2094,118781.27968756937
2095,144666.55348865103
2096,82651.29541589896
2097,92868.05445656128
2098,144648.6378378426
2099,52912.13268160522
2100,72052.4225410634
2101,104648.34350433275
2102,136467.63983062794
2103,102092.27614165061
2104,134684.73417498064
2105,118860.24333467995
2106,59534.545678891795
2107,192489.50901740108
2108,115599.03004400396
2109,98587.17555262176
2110,134147.56097875908
2111,140996.35338322909
2112,139443.04403397403
2113,117334.81442430303
2114,115725.78269070624
2115,148487.38241330112
2116,118259.40730752217
2117,137622.83642340713
2118,121612.31143946107
2119,109506.70583569899
2120,107750.49424587814
2121,90553.52387003905
2122,106286.20627681505
2123,80868.76627090458
2124,158960.9334393025
2125,129882.4656801346
2126,144239.14272983812
2127,156100.72138685136
2128,142973.00190314202
2129,106384.93604737539
2130,127068.93188482846
2131,149891.16755055767
2132,120985.67941921814
2133,123550.41636436777
2134,123273.3329457236
2135,94205.85026900833
2136,70919.13011137693
2137,114897.31968295418
2138,147095.31930087588
2139,146647.7207531851
2140,136937.23584330597
2141,152799.04705190402
2142,126243.11168369673
2143,144669.12895579787
2144,119650.26038340545
2145,138339.4412772876
2146,177704.31526664976
2147,143246.2533757486
2148,150937.17127118757
2149,156123.49144102432
2150,221516.41801421167
2151,113899.46610430785
2152,176026.37997449643
2153,168875.25094073502
2154,97796.52486444793
2155,133387.19585945946
2156,258651.5655977932
2157,223844.9808506731
2158,233133.63167155586
2159,207833.46142443822
2160,165275.86783260416
2161,240185.27945008647
2162,380920.62173380714
2163,361098.75500982784
2164,257923.93961088872
2165,196630.0300692201
2166,147778.8349254314
2167,205372.2112493475
2168,191526.86547668488
2169,197966.17232923867
2170,220873.2621816502
2171,150672.2568895861
2172,142942.70717388747
2173,150447.28209742613
2174,232028.91528237332
2175,303034.8156956178
2176,334224.86837558553
2177,235280.40028809113
2178,222988.02665321887
2179,140809.7328248967
2180,207494.8930119256
2181,200291.79885332548
2182,228708.05496186684
2183,200036.83765227924
2184,124630.67593999216
2185,135825.95353730465
2186,146884.11077341696
2187,151515.72879749225
2188,157782.6241702002
2189,178613.26636735463
2190,82779.5842871798
2191,81981.3046799179
2192,87263.18104569291
2193,99247.01560727465
2194,104623.36850379172
2195,112178.07403907282
2196,118393.14304280144
2197,120005.77438770936
2198,166165.91932325767
2199,197438.7080229486
2200,160940.95967026558
2201,165341.74834389467
2202,221133.23776223257
2203,141947.32746406074
2204,195391.3435172249
2205,124595.12154756936
2206,141911.69905554847
2207,211311.04580263208
2208,265012.06011277664
2209,216959.62325668146
2210,109276.28723474122
2211,114893.84114827594
2212,107313.87608729333
2213,104043.05415267195
2214,130682.65963878664
2215,98092.72076224437
2216,133107.13669796436
2217,72820.57911125658
2218,57485.23525152613
2219,51446.09915426809
2220,52041.63658179597
2221,316612.3367163922
2222,270988.9197177286
2223,301096.4635978323
2224,215473.01854933272
2225,135922.2230023731
2226,171535.4596561842
2227,214606.92308239095
2228,286655.67752828717
2229,242465.39840056727
2230,140350.98909179054
2231,203794.2150013016
2232,174009.84292499963
2233,195695.30047495422
2234,245332.19754214387
2235,226056.26824257214
2236,265168.414296919
2237,347473.1950007365
2238,206193.0299613381
2239,114269.00208767863
2240,157816.28976638682
2241,170856.9140648914
2242,127489.67853180897
2243,133259.2218955579
2244,101147.9565832959
2245,96796.35344416849
2246,149126.5671710014
2247,104347.7649284401
2248,123813.9778741293
2249,116968.76181425866
2250,123109.08177898901
2251,116634.22862711453
2252,175190.0862422441
2253,150539.81783867904
2254,164430.26912399766
2255,184457.50181962375
2256,179523.67737728203
2257,198678.43620960249
2258,163157.71934458017
2259,165044.60168359592
2260,168178.6451141487
2261,199244.1115611594
2262,213582.7026642488
2263,345560.67661949585
2264,445569.9073526087
2265,189985.4020203901
2266,286901.5199783114
2267,355074.99484319426
2268,401380.2343324252
2269,159081.84065443746
2270,191419.05146322405
2271,205048.36363156192
2272,197303.32954992392
2273,161857.24704295196
2274,172889.18936040348
2275,171534.38506398702
2276,194322.79675661415
2277,187381.8398041571
2278,141258.77906470106
2279,120255.38980659048
2280,119913.58644352514
2281,176204.23917231822
2282,185249.72635111283
2283,95831.37525554454
2284,107695.32945554979
2285,154174.51820952471
2286,125554.87526800997
2287,351813.5413532067
2288,262730.4525681717
2289,375226.51606039115
2290,501298.6651522702
2291,306919.8619894345
2292,449587.836013259
2293,494403.78815969615
2294,415572.0242332279
2295,491317.5730520617
2296,275669.4422662829
2297,331538.82246726775
2298,342901.1325776043
2299,369321.1319736388
2300,356313.01760788367
2301,282388.29912791756
2302,242551.26952967225
2303,237849.98484242937
2304,246874.53677601146
2305,193339.47110366123
2306,194218.9094425379
2307,194912.83327600063
2308,222729.53495893866
2309,275521.00236985413
2310,203070.6907767878
2311,198133.27232737796
2312,180406.27857245004
2313,175387.89745439313
2314,150751.67715309144
2315,173152.8531221684
2316,188465.04320428034
2317,178514.42252568886
2318,175963.3758801942
2319,170434.81940595855
2320,179021.95985110584
2321,257011.51951009763
2322,184789.18879132692
2323,192222.53769081304
2324,172812.23137396283
2325,212259.4861330092
2326,164239.28950415808
2327,205549.48753485296
2328,218643.25342779458
2329,184490.59226037943
2330,167544.59393166204
2331,376755.42821066355
2332,425952.52913564135
2333,322185.4905222922
2334,253484.50550855158
2335,268394.20251882327
2336,314572.2075276787
2337,197393.7711009003
2338,263274.5063058905
2339,221283.90750442512
2340,400269.5551184331
2341,211213.0908240164
2342,234427.9378113832
2343,233498.84913242148
2344,219562.0286824575
2345,247262.7894590513
2346,201283.87727778984
2347,186761.14826279524
2348,229099.84559753383
2349,162808.25471765723
2350,290329.85416248644
2351,239994.43677333771
2352,246396.85639124655
2353,247270.9825015277
2354,122631.77451550924
2355,139010.7077123453
2356,156700.41238381504
2357,197240.24052261087
2358,195610.73452146968
2359,120358.990488909
2360,119691.07768974357
2361,144678.99258878842
2362,276443.3818675764
2363,132138.97610542367
2364,162553.13584724138
2365,225362.23012720054
2366,193791.6711250152
2367,217131.9578878474
2368,208470.5630386153
2369,211586.76333874682
2370,160594.3143264635
2371,166351.79677456515
2372,182234.51970484765
2373,266944.54393142206
2374,318106.9793363035
2375,240160.82533029653
2376,290254.895058878
2377,355279.10351832444
2378,145073.67230668094
2379,198013.9117446983
2380,158598.93204927523
2381,158217.77168013845
2382,186186.65604087486
2383,201406.00445607933
2384,247012.73502575417
2385,161811.80298293917
2386,130013.91956706924
2387,131533.55071669212
2388,101081.37361619624
2389,127034.2815981209
2390,138081.52994598344
2391,136928.42042715283
2392,112698.21956374915
2393,175107.1157962083
2394,145350.01638177314
2395,199495.41594422422
2396,136620.4047414964
2397,201764.73982910442
2398,120467.18514527808
2399,57246.2746331971
2400,59794.65873187478
2401,117276.58823043367
2402,137787.57091311322
2403,144469.59369523978
2404,149430.62613979867
2405,162461.5325929763
2406,133723.40254541533
2407,129507.69374634395
2408,142962.87164661422
2409,118867.27269222573
2410,163323.29174097086
2411,120359.85088781363
2412,142360.50990537633
2413,131656.55347036943
2414,140570.30125578406
2415,138811.13850480062
2416,127652.92591651136
2417,134305.5095772375
2418,124666.66053493491
2419,125074.42152609384
2420,123778.78431649045
2421,142102.28157434246
2422,116483.2520314535
2423,125987.2987866697
2424,155992.1491724141
2425,185037.1449894116
2426,156707.8710151762
2427,146074.49104681204
2428,158885.3595165998
2429,125616.0948649579
2430,133746.89702842757
2431,102677.69331452023
2432,137591.82028563155
2433,140033.2775185593
2434,139369.99815733673
2435,146063.02071312442
2436,105281.182292944
2437,109186.71416573686
2438,123678.86728445279
2439,117425.72124328463
2440,123932.21915101263
2441,97672.06092935707
2442,103868.75244095222
2443,120725.52855133983
2444,126122.21128402364
2445,84656.75705822531
2446,142886.574737871
2447,185437.77717837025
2448,135114.25090210137
2449,115154.93201382822
2450,152753.51676720128
2451,127465.55354800922
2452,179349.3809831135
2453,92917.94797879866
2454,117534.95973566752
2455,114148.934595713
2456,120590.80618689145
2457,120473.77464437751
2458,117251.71019425742
2459,114030.83779243678
2460,137880.0361402529
2461,122308.74502433243
2462,126725.08529564073
2463,125179.24138932518
2464,157053.1442023146
2465,139940.1157531177
2466,111266.06255849813
2467,137449.06638820097
2468,85169.87604023113
2469,78025.39811035681
2470,157390.45619406106
2471,175712.529992275
2472,156089.2634249308
2473,116703.4225927767
2474,76662.43599304536
2475,213135.30296308474
2476,112273.02573404385
2477,131987.0167983254
2478,171775.09799609715
2479,105887.01021622166
2480,163221.38269412762
2481,118956.60708635818
2482,136747.8287255103
2483,113743.23487817659
2484,120867.64993355196
2485,128481.64837617594
2486,150841.20478077058
2487,183724.3346294869
2488,152786.57916358096
2489,141550.44358716594
2490,150298.33212583663
2491,91334.57206966798
2492,175514.41788526182
2493,155167.43655517208
2494,153716.010489745
2495,91379.8696067026
2496,223061.66454606212
2497,154848.6081278902
2498,117034.44564523925
2499,87308.75814643479
2500,133783.6819753469
2501,134773.04569341673
2502,136065.71694007007
2503,93420.54445742823
2504,178905.91879161244
2505,217424.00245613552
2506,247502.6602289044
2507,282625.5461198459
2508,247647.06773362067
2509,225680.03877626863
2510,223711.62051045647
2511,180691.0693396924
2512,212291.87059455822
2513,224053.97268738726
2514,266719.35206970177
2515,147111.67286675528
2516,157808.38372067417
2517,139547.14939275075
2518,149316.8364766037
2519,228562.0533935865
2520,201035.64134530566
2521,190892.6107781361
2522,220132.78467149177
2523,130502.23897958527
2524,140911.10199513467
2525,145350.0028874886
2526,142891.01084680005
2527,120951.65246673384
2528,121788.88236642054
2529,130010.49746475673
2530,119850.84248582952
2531,227546.66892941252
2532,227980.58417117558
2533,193721.44163699783
2534,235275.40602888673
2535,301224.47211535036
2536,246035.42047876448
2537,236772.09687923186
2538,176771.18219276832
2539,193130.09679113596
2540,173388.85771874146
2541,176863.54527583046
2542,167079.10911880026
2543,138998.7617449296
2544,121306.59836870607
2545,147510.50568592342
2546,141318.54794133187
2547,143359.9005100727
2548,154245.56515569365
2549,153249.14256569184
2550,675666.8524307
2551,139239.56511543668
2552,132967.65961910583
2553,74332.04739201216
2554,106347.71123129949
2555,121465.7907149454
2556,99715.78492861388
2557,115638.95201850467
2558,147019.00146366365
2559,148187.01571739037
2560,157706.88573450875
2561,156306.72275577494
2562,139322.35743234612
2563,156210.16717085612
2564,206406.3043431093
2565,133102.3454614792
2566,173545.99165085092
2567,152380.7310134664
2568,190791.6061844885
2569,231195.5570370405
2570,111893.74077859707
2571,196953.33572422492
2572,158966.77536221198
2573,237294.19691243392
2574,254063.45271905675
2575,129817.8674708918
2576,120563.66940583986
2577,133178.43731414562
2578,96032.60062869142
2579,79183.58551485236
2580,73170.03648525529
2581,84667.70851926907
2582,85747.67608950363
2583,267642.2022223271
2584,168527.9955025318
2585,189419.94156712963
2586,197708.62455665958
2587,188539.84844367253
2588,142051.52907607477
2589,152605.96462901123
2590,233264.95290811727
2591,179559.93708476183
2592,207594.81925953197
2593,238892.40367921017
2594,182926.02740650537
2595,212239.8531585109
2596,291833.71918970847
2597,191447.99375027703
2598,284211.7153066951
2599,333843.2385705963
2600,136258.7192737808
2601,147243.4914224274
2602,81478.73335074211
2603,92266.62542685196
2604,84472.72400012068
2605,76868.1619472009
2606,145504.69015081978
2607,195250.95249317025
2608,179767.9400115027
2609,169782.957149374
2610,111407.21819873308
2611,114639.01391652922
2612,154506.76487528483
2613,125072.33167302955
2614,121297.52823574249
2615,151573.82385523582
2616,136017.02749377702
2617,171430.89845849498
2618,226160.26805800307
2619,193209.31251494758
2620,168030.42468647403
2621,164780.00931075859
2622,165625.46621761337
2623,228531.4127841134
2624,305022.8778023231
2625,276446.08009122853
2626,166660.73912376357
2627,162221.02485409955
2628,454934.52396736306
2629,531490.9816708342
2630,347160.39104992244
2631,454208.45997990697
2632,418448.7187565168
2633,301545.4743867814
2634,409683.03683407325
2635,159043.02383184317
2636,173007.41458492618
2637,188885.38126547154
2638,236769.20548660133
2639,174425.29065822574
2640,146680.28178011533
2641,103555.38439598917
2642,187054.01497383733
2643,96243.0091066879
2644,129284.42346876343
2645,100393.54819846187
2646,87857.15045668569
2647,95773.74047654214
2648,153793.70271402757
2649,146992.04208166018
2650,145658.3648875239
2651,155559.1444532264
2652,403119.56678185455
2653,256470.47331350678
2654,239123.55622556052
2655,398276.06923210324
2656,301141.3844068081
2657,342463.1417209939
2658,291752.80072922737
2659,300374.8858030171
2660,372362.4718365312
2661,374641.72833279596
2662,375657.71099924843
2663,286195.53085535055
2664,279328.37958902074
2665,313393.00900176034
2666,281579.7581143515
2667,168572.05703141954
2668,176456.85011895504
2669,178311.9800712501
2670,278610.9136861529
2671,177641.73281330595
2672,196322.45933126783
2673,215406.60707940758
2674,192080.69219669432
2675,179148.59269806347
2676,193883.74453030943
2677,189103.8959979273
2678,241131.695432003
2679,270278.45365784795
2680,286085.5465944006
2681,444467.01189065067
2682,296002.35136486334
2683,547075.3206281083
2684,327182.6851495121
2685,330406.5642185256
2686,242173.29621302147
2687,326370.38064017094
2688,209842.94529809075
2689,198216.3818955884
2690,429371.1190674662
2691,183527.16727252203
2692,123444.34327223523
2693,193009.18235767676
2694,121909.28706629138
2695,189448.85706759925
2696,181258.74080161308
2697,174667.08773508258
2698,195564.11181632834
2699,180452.79372863573
2700,166763.09191445753
2701,150475.34281662953
2702,122771.78840621776
2703,127025.12136707526
2704,132794.27756866603
2705,118570.85553752215
2706,115457.98999552568
2707,128542.37989144366
2708,129819.90244851982
2709,95808.20690936183
2710,123353.7644142645
2711,330789.2495967618
2712,402183.72312406613
2713,167846.14786109806
2714,144778.8829394007
2715,174804.08374721473
2716,144159.55101437037
2717,171146.3585040198
2718,213208.09896744404
2719,163158.34042963642
2720,172214.84087003823
2721,135490.99410918474
2722,172625.77835261516
2723,152519.69608402796
2724,134568.7816973118
2725,125169.8083980831
2726,144369.1260444018
2727,176062.84011560158
2728,165069.562256484
2729,143507.85096331645
2730,145697.84039905792
2731,130754.24908226343
2732,123911.03155661195
2733,158131.32828877185
2734,162569.91079253182
2735,134009.5777791529
2736,140630.24953581576
2737,120489.55836100661
2738,138356.38234953073
2739,149121.8951559607
2740,132498.65690340305
2741,135975.15193841947
2742,160259.73419623214
2743,147118.94924194718
2744,150494.664569389
2745,145032.90270847327
2746,130553.32874955493
2747,143159.0863478188
2748,131959.73262412456
2749,125615.66938813431
2750,134547.32122862712
2751,131084.12273922894
2752,209828.78481946775
2753,142639.56323226425
2754,259384.1942988794
2755,139449.38328897275
2756,97257.35146274447
2757,64322.74369351497
2758,80519.41684834432
2759,169988.15612790207
2760,126909.2617892711
2761,143438.55264707544
2762,138930.88196955196
2763,172595.5938423674
2764,144851.24109997795
2765,268030.160172586
2766,139404.0982407905
2767,87194.8251779898
2768,124376.58867066691
2769,116365.3286630384
2770,153858.96920436813
2771,122529.45487758257
2772,116636.95003419662
2773,146220.03026418493
2774,132810.52062296728
2775,116059.1636830444
2776,148266.6708699428
2777,148355.37253607006
2778,94173.86586059399
2779,125968.043726685
2780,103828.84876807612
2781,100302.64539322308
2782,89835.61373225866
2783,99100.87291080496
2784,129594.88404803295
2785,137214.39668098488
2786,64994.16650500732
2787,115472.78159130843
2788,80823.55241074126
2789,161508.766507235
2790,86451.82241731563
2791,110611.85409018554
2792,39474.97342225513
2793,140748.97101777964
2794,107866.36216356987
2795,110108.65531062151
2796,98553.45710540573
2797,174081.99441889193
2798,102429.79345278855
2799,99998.07643595773
2800,71526.76322735984
2801,113491.32619116535
2802,132926.7044019109
2803,152944.13247366596
2804,133371.47152137803
2805,101256.36866311406
2806,82756.64564198676
2807,155223.26147334476
2808,146542.7520007663
2809,136678.2642047413
2810,132539.71555833562
2811,144565.9570098975
2812,144759.47535030777
2813,151526.29418182262
2814,150809.4654625897
2815,100063.55561667874
2816,237979.5786672556
2817,152616.68742899701
2818,141315.71740683014
2819,180648.33014088907
2820,136381.4681822125
2821,108042.28428513066
2822,183190.69461217994
2823,307866.02479999163
2824,177366.03513548954
2825,132114.53558082844
2826,137623.74452164158
2827,140039.4489609741
2828,232339.16948523928
2829,234135.81501549183
2830,230076.46538973297
2831,193509.39532844626
2832,220252.75611938193
2833,300112.4252189141
2834,215474.7506833297
2835,224063.28666696427
2836,193636.1265572061
2837,173437.3184961084
2838,146565.26427805534
2839,172101.63390652035
2840,191059.90057111322
2841,202046.2961490419
2842,218625.40721498017
2843,147280.677938616
2844,159796.63490947327
2845,123961.35796437465
2846,204510.04519894358
2847,189770.7836859131
2848,209573.25077264803
2849,199998.81097090276
2850,282838.7485111905
2851,228267.78237701292
2852,239713.16788654722
2853,241240.00613611564
2854,141352.84127735018
2855,204232.3603775122
2856,200263.99988660373
2857,191997.01962827955
2858,202088.92542552477
2859,146502.36823420605
2860,130791.84568447853
2861,141037.69721779865
2862,195097.15085771857
2863,124023.13348389273
2864,240512.49072528904
2865,132955.45712277046
2866,150568.10260699844
2867,100170.88423775298
2868,102566.5990598806
2869,116129.68709640169
2870,143394.78395932855
2871,90980.45469440488
2872,53173.322553635466
2873,99287.96999153722
2874,131010.50295197504
2875,128411.52721721563
2876,158568.81689643086
2877,145359.29802388308
2878,193268.45137774333
2879,138835.88226645126
2880,96616.23282006873
2881,167764.45207160054
2882,188851.04978870548
2883,234280.36579343746
2884,206591.55905671127
2885,207024.48025224585
2886,247953.80599366696
2887,103086.87857162571
2888,136735.72174974022
2889,52408.349270341016
2890,81957.65780659615
2891,126806.4190936354
2892,38304.148921056214
2893,61318.109122465896
2894,38760.96783579433
2895,308472.1610087853
2896,297428.67480644403
2897,205935.22003108345
2898,149772.92814521896
2899,221228.46074733933
2900,165307.31328306734
2901,207143.41335704885
2902,193424.87354265436
2903,338364.31683336926
2904,337201.4506152433
2905,102995.25645695312
2906,206380.14079586926
2907,115373.7358436445
2908,128107.12417539682
2909,153840.9031091253
2910,80549.80551762324
2911,81478.73335074211
2912,137478.76914103163
2913,86130.94656421883
2914,72755.30093719749
2915,80666.53769513396
2916,83466.41354628814
2917,173461.2482708698
2918,112874.50542217567
2919,225217.6199044038
