Id,SalePrice
1461,133930.3444239873
1462,141366.6009933943
1463,184596.76780998794
1464,175373.09408856535
1465,183726.17212128543
1466,191565.71227193688
1467,158394.0568850536
1468,157964.63433456767
1469,193133.48366089014
1470,133764.33205500225
1471,211020.43916412373
1472,119660.08281081017
1473,116178.08374140703
1474,150931.38706419448
1475,128965.45653442718
1476,300186.4668843221
1477,242406.64167334203
1478,280246.1621325556
1479,276374.5869941038
1480,302625.24956916575
1481,298308.4631661806
1482,202825.72250863578
1483,176318.00683284222
1484,175311.32887307514
1485,179335.46756485224
1486,209190.78632818192
1487,294436.88802772877
1488,254930.75957879217
1489,197460.16082363483
1490,227017.71180954308
1491,205110.6248246751
1492,114462.48372977255
1493,170973.320454687
1494,280242.6858872307
1495,281222.80689976487
1496,241866.04086766054
1497,207198.11649616537
1498,167163.20947806677
1499,167163.20947806677
1500,157897.88060485772
1501,160846.44875233193
1502,167163.20947806677
1503,264887.273289791
1504,218835.3955452143
1505,238322.23985155733
1506,198960.0453001203
1507,238679.02070038192
1508,210348.5859068572
1509,154765.4977259227
1510,144455.21256356794
1511,158452.52629205713
1512,195954.4565450861
1513,138336.51491939716
1514,194957.66984406702
1515,167972.12256541484
1516,147770.21693501354
1517,168122.97392146694
1518,173649.930015421
1519,234656.56397658546
1520,129712.96361570759
1521,155656.16751537684
1522,158932.22299726296
1523,112779.18264566718
1524,117485.18012383084
1525,125119.34203233707
1526,121748.9103335269
1527,136032.71120734568
1528,136337.39017298032
1529,135367.52034978766
1530,175072.93003376582
1531,137700.7032638232
1532,128150.63671458115
1533,135892.38231912573
1534,138071.50542154783
1535,152633.58552929043
1536,117017.75164360023
1537,136397.25444927294
1538,169116.29878422496
1539,223017.3674741784
1540,150086.3850062673
1541,151141.63990521958
1542,137672.10489115343
1543,183414.66166078026
1544,111161.4226693242
1545,113844.05717242471
1546,135994.93073501866
1547,133706.51447592812
1548,123103.96366146007
1549,133979.52686849624
1550,139258.79614619337
1551,138633.34988560627
1552,157302.11349573484
1553,146221.58567080996
1554,131702.0829540982
1555,158141.50144971782
1556,116451.88735704005
1557,151473.79576914982
1558,115501.9347431848
1559,145930.41979405063
1560,142236.95649004908
1561,177331.66650393544
1562,124433.81023774848
1563,141659.83090252694
1564,189350.90088152647
1565,145106.69630281348
1566,210207.21631675106
1567,117832.38624648987
1568,192803.16264365969
1569,148023.5081458963
1570,150916.3739026918
1571,130919.34847055528
1572,157297.1205491757
1573,244407.17842410435
1574,139207.33183687343
1575,204963.1340315298
1576,240891.11517249042
1577,202066.06749000464
1578,147539.32420063554
1579,150874.80128800735
1580,203019.2065704689
1581,154378.89514563102
1582,131175.7866652782
1583,302625.24956916575
1584,241768.5512848711
1585,160157.6225077736
1586,119685.65234090757
1587,116472.12833462887
1588,144924.77208758242
1589,116519.9746632216
1590,135897.02483468677
1591,117871.6263806053
1592,146831.6388969451
1593,130852.92320306043
1594,153886.50097903915
1595,139232.81691020873
1596,209273.9898453549
1597,160696.02941383253
1598,193000.91787086922
1599,175162.91082176272
1600,176676.89215391452
1601,112794.49740535523
1602,129717.60811197202
1603,116893.27963860641
1604,251493.90925475734
1605,268299.325121445
1606,160951.71156526598
1607,227666.28425836665
1608,224897.3384196079
1609,196016.45598724968
1610,159435.9093142628
1611,146319.63999704685
1612,174434.11281971552
1613,176440.74065039126
1614,150423.25658147433
1615,131765.33143455285
1616,115640.85981347259
1617,118755.28568327313
1618,125796.0118027501
1619,137517.8926022251
1620,192471.49028674408
1621,144400.2277118948
1622,135377.91435287893
1623,251493.90925475734
1624,204551.1275628443
1625,123255.53581160487
1626,164436.7847013053
1627,169558.62898060927
1628,264555.151720564
1629,197081.07937437604
1630,256028.61823151144
1631,197932.81735158732
1632,226355.9334192339
1633,181634.27712452773
1634,192255.4680211401
1635,178771.3276934201
1636,157547.45484139607
1637,180726.18310875123
1638,204512.65480040677
1639,176455.42117936382
1640,216128.88831392027
1641,168793.49422998758
1642,219193.93020461328
1643,219342.99556644855
1644,218835.3955452143
1645,211584.34305979838
1646,148829.59218237177
1647,174192.0272913837
1648,128336.11509393489
1649,129014.82986640642
1650,129178.03752041841
1651,133885.00564924924
1652,119218.75033936105
1653,116547.820979399
1654,150810.0856421778
1655,165830.93362303838
1656,152290.30068430054
1657,150054.1064081809
1658,156239.72894495845
1659,134748.64772580043
1660,155497.18480214267
1661,304503.2532873073
1662,286437.47600835736
1663,304503.2532873073
1664,304503.2532873073
1665,282124.16585069714
1666,284453.0969869611
1667,288815.71912064066
1668,290202.67584355443
1669,264887.273289791
1670,290202.67584355443
1671,251422.71156514165
1672,298753.67443071393
1673,280242.6858872307
1674,256808.7632969337
1675,176912.51914326995
1676,192998.7960446883
1677,205124.53206831127
1678,302625.24956916575
1679,302625.24956916575
1680,262915.0500178592
1681,226200.13203983076
1682,288324.6721254129
1683,198336.02250489662
1684,172063.37643633244
1685,161837.4045326052
1686,196413.00981374015
1687,167668.15274509267
1688,197371.53968458908
1689,181924.73743474076
1690,179476.86251323
1691,179476.86251323
1692,259296.18611845048
1693,175255.3060613454
1694,169250.89060950276
1695,168049.21128991715
1696,264196.61706116505
1697,168049.21128991715
1698,297103.814903705
1699,294546.7395763084
1700,241619.48592303583
1701,241619.48592303583
1702,267722.0442271055
1703,282124.16585069714
1704,286331.1007051026
1705,212160.39383082485
1706,298753.67443071393
1707,196016.45598724968
1708,201331.73596208662
1709,256808.7632969337
1710,207075.17930968374
1711,253672.57458739253
1712,238693.28593289957
1713,290202.67584355443
1714,227791.69336641746
1715,209808.27872034724
1716,193786.49023692484
1717,175528.58042801413
1718,137523.33057028454
1719,205110.6248246751
1720,244400.2130936523
1721,173799.6420717079
1722,133040.0985173791
1723,156032.71297868734
1724,242406.64167334203
1725,217930.29293845996
1726,196946.02688934322
1727,173097.77988084804
1728,177844.57593123394
1729,154010.00946090202
1730,210343.18635286958
1731,123642.14682411806
1732,151755.1096418783
1733,127416.30094785934
1734,133920.95241373038
1735,137940.48055118526
1736,119397.31284375595
1737,302625.24956916575
1738,204780.24948454284
1739,268906.89660985355
1740,228656.6205342362
1741,204707.0676602907
1742,160846.44875233193
1743,171834.9698110635
1744,243198.7453353086
1745,221855.41973766577
1746,191306.54986621244
1747,246290.16885424507
1748,186132.36491172537
1749,162744.9038338714
1750,153522.46208334924
1751,202127.1566123693
1752,124660.42781780187
1753,186485.02508436784
1754,208067.5424589501
1755,185185.2239052354
1756,134218.3189504716
1757,123401.65384941905
1758,199689.78973908935
1759,152479.12894980662
1760,175945.45086554336
1761,167570.66486942244
1762,178791.64985964505
1763,158705.79968836944
1764,121145.50933192084
1765,195310.9863885789
1766,204546.89268864642
1767,210184.40145558355
1768,134170.1204170283
1769,175722.34028888273
1770,149609.83213316547
1771,140634.50931827122
1772,130411.89556393826
1773,142563.0358278592
1774,169149.6775619006
1775,121753.94628492587
1776,120903.45815123373
1777,112794.49740535523
1778,158377.95441391988
1779,141723.3349065018
1780,167976.05575173438
1781,135178.37955298394
1782,112301.39053122743
1783,157420.79826836794
1784,125751.08062977705
1785,114759.57420657879
1786,148413.11973008545
1787,192544.31935193535
1788,111840.74384070073
1789,122968.90188508376
1790,119685.65234090757
1791,254382.92327304342
1792,142372.13288408608
1793,144857.14412471495
1794,151157.45961067622
1795,125331.27913500128
1796,138293.21287861487
1797,135263.60063853208
1798,121145.50933192084
1799,112432.64432592514
1800,149675.5284133533
1801,138219.08470512557
1802,148778.62223131445
1803,161988.87605402383
1804,161129.10818286744
1805,140126.45451404378
1806,133199.3249663396
1807,157910.18934506734
1808,140840.45883995487
1809,144111.54191181966
1810,137076.41699264545
1811,131186.00866318212
1812,116627.04125529247
1813,121508.50842865097
1814,116471.59915253603
1815,108049.16083791302
1816,117719.96216943326
1817,144464.16450770322
1818,169245.97862244447
1819,138363.75852334296
1820,122501.57876419356
1821,118521.02418075986
1822,188143.68586464864
1823,113915.15104818088
1824,144267.4196254407
1825,142227.83329999167
1826,115711.14894449814
1827,120589.37372385294
1828,137495.0364763097
1829,168290.8797212353
1830,141663.80638046243
1831,182009.1389369697
1832,150086.3850062673
1833,157651.76183366933
1834,137155.3874407956
1835,178355.1573916783
1836,128020.30499348752
1837,120724.05347729998
1838,129098.67977522546
1839,119323.79926147748
1840,182255.69649841017
1841,157604.56939476696
1842,116668.75558555256
1843,150283.93498898466
1844,155084.55991701415
1845,143497.12356633108
1846,145458.73591035703
1847,141694.76308973867
1848,115627.70517623096
1849,132410.6341833301
1850,120024.85568909519
1851,147904.33945736988
1852,133326.91237357195
1853,150639.32083207363
1854,160882.60628042178
1855,154637.15554190963
1856,214300.6865684602
1857,160236.2942796652
1858,204533.76053140248
1859,138454.70480449346
1860,184431.83959367784
1861,138454.70480449346
1862,268548.3619504546
1863,268548.3619504546
1864,268548.3619504546
1865,290202.67584355443
1866,290202.67584355443
1867,256808.7632969337
1868,257906.62194965294
1869,206716.64465028475
1870,219529.69194052982
1871,254930.75957879217
1872,162998.05752969094
1873,235733.6011540627
1874,135201.50820472615
1875,224806.5750249944
1876,204074.71466473295
1877,213351.78828586155
1878,233237.02533041622
1879,145254.93879875264
1880,129614.38154839515
1881,252478.72308650962
1882,227514.4982197639
1883,205469.15948407407
1884,229158.35246864994
1885,241866.04086766054
1886,251493.90925475734
1887,206541.2925372634
1888,261015.6981513392
1889,170002.49706636055
1890,146662.21330013516
1891,155239.15740488246
1892,121327.24664193888
1893,148419.4427701232
1894,173895.05773145365
1895,151826.71309575072
1896,126474.55714264058
1897,126474.55714264058
1898,126520.80176153114
1899,153534.7088319587
1900,149070.88984756908
1901,136579.1924189711
1902,142415.1042982376
1903,178493.50203141136
1904,125201.74600935892
1905,199389.0464866263
1906,149543.48468729548
1907,149655.1619498318
1908,135569.81978405683
1909,146630.39420755891
1910,142678.1945153847
1911,176949.10013841852
1912,231799.1657483865
1913,168671.86798134824
1914,110123.56804539317
1915,257906.62194965294
1916,110123.56804539317
1917,264196.61706116505
1918,140483.85187495154
1919,174863.90629181234
1920,186954.99481187866
1921,300631.67814885546
1922,275800.5542199628
1923,200844.54620912037
1924,235250.4206451515
1925,218899.62773950296
1926,304503.2532873073
1927,129033.64244433105
1928,168710.75633547356
1929,141382.8484572033
1930,144348.07181620577
1931,154528.7520652904
1932,145789.29735778348
1933,205618.0561615459
1934,162948.6812510405
1935,158027.24961812352
1936,174938.9435980156
1937,178009.05570376696
1938,182086.6006539568
1939,236886.47990437376
1940,183726.17212128543
1941,185005.4312304576
1942,184396.06283974845
1943,193341.1906073343
1944,279884.1512278317
1945,286937.71540249913
1946,193039.57474600288
1947,257906.62194965294
1948,209121.47646714363
1949,244964.98989723108
1950,184163.42914442788
1951,239877.67574124382
1952,224121.43987561087
1953,161818.66173803783
1954,209407.35965454936
1955,130596.40812747166
1956,284559.47229021584
1957,151101.90911556117
1958,284200.9376308169
1959,157850.94361406795
1960,127356.95229564633
1961,128562.70279001186
1962,122655.35911184283
1963,125767.620943254
1964,127042.19983889836
1965,147931.00204754603
1966,153956.7623953436
1967,254356.72680465112
1968,288815.71912064066
1969,304503.2532873073
1970,304503.2532873073
1971,298753.67443071393
1972,288431.04742866766
1973,266433.1554387055
1974,279884.1512278317
1975,302625.24956916575
1976,263009.2695716495
1977,298753.67443071393
1978,298308.4631661806
1979,292553.1681559981
1980,196413.00981374015
1981,290202.67584355443
1982,205483.06672771025
1983,205483.06672771025
1984,200006.0633003368
1985,232163.66786811268
1986,232163.66786811268
1987,196820.74100867298
1988,161837.4045326052
1989,201628.2348894491
1990,215422.01408122075
1991,205124.53206831127
1992,212001.8770087847
1993,172063.37643633244
1994,222830.72388117452
1995,196374.33597371838
1996,218086.3710975058
1997,298308.4631661806
1998,302625.24956916575
1999,227365.43285792862
2000,279884.1512278317
2001,279884.1512278317
2002,257602.37469826784
2003,267916.50734759745
2004,273232.1176332589
2005,228149.8895467118
2006,202921.17221329498
2007,266436.6316840305
2008,198166.20018508993
2009,199244.8364490187
2010,205110.6248246751
2011,163959.68972799074
2012,178266.14619957324
2013,179200.41507981942
2014,189724.39936510136
2015,204961.55946283982
2016,204681.84290181915
2017,201983.42873178783
2018,129052.61587655699
2019,138117.51722517092
2020,121689.09972136897
2021,123962.29406850069
2022,163680.8054673084
2023,146871.59710639698
2024,203975.37995222554
2025,256431.1396333479
2026,191403.89799406106
2027,157897.88060485772
2028,175361.14409900355
2029,163882.05252112274
2030,251493.90925475734
2031,207261.9435912053
2032,216026.76236581017
2033,241866.04086766054
2034,174499.32682734853
2035,209400.25562574563
2036,180148.7242068494
2037,180148.7242068494
2038,242606.06063552212
2039,194577.52693197818
2040,276906.0204967797
2041,211837.8260023698
2042,214449.75193029546
2043,168146.161141512
2044,197400.68136020956
2045,218109.1189911903
2046,171609.5937132435
2047,136544.90422705712
2048,139021.48362194645
2049,171609.5937132435
2050,176891.1363268986
2051,121145.50933192084
2052,128336.11509393489
2053,135102.81213816354
2054,108049.16083791302
2055,153396.21717896115
2056,154076.68051905461
2057,122476.23887045392
2058,190566.17739507786
2059,142752.38790369887
2060,179086.55819766712
2061,178745.17698607998
2062,127253.04746436469
2063,113035.59791727862
2064,133852.1877920325
2065,120855.08264054816
2066,151868.40845964788
2067,191953.0490294574
2068,169149.6775619006
2069,111836.12217344325
2070,111781.44561615326
2071,122747.72310612461
2072,183530.89629007463
2073,142442.34154516927
2074,191281.513661432
2075,149063.75323961215
2076,129489.8858672464
2077,143094.4254696141
2078,127579.25818367997
2079,134807.56909864876
2080,114151.25640288819
2081,118595.22640178233
2082,173895.05773145365
2083,143347.92074498232
2084,110961.19070979847
2085,121471.7200512361
2086,157939.59748632542
2087,135425.97710000712
2088,131257.80332289185
2089,108049.16083791302
2090,142589.6316818988
2091,136169.31197445965
2092,147653.14768549384
2093,144423.4842050625
2094,159342.12488631406
2095,150867.8632261189
2096,108049.16083791302
2097,122331.77845238739
2098,180918.24489248014
2099,111836.12217344325
2100,154224.44228057016
2101,160465.96802120566
2102,133742.68650241964
2103,120614.60265707984
2104,151752.79554701154
2105,139448.63429461568
2106,116471.59915253603
2107,196873.44529905356
2108,118614.36673664064
2109,124376.33505938319
2110,136722.48612079502
2111,146881.5090322404
2112,140034.84100355368
2113,125012.40799087229
2114,131702.0829540982
2115,155757.5525038401
2116,130350.4263821519
2117,157268.5533421806
2118,130274.78428616063
2119,115809.13397364828
2120,127793.97827779675
2121,109761.7149659631
2122,108049.16083791302
2123,118810.72087726278
2124,177035.59877617797
2125,131706.29660963477
2126,166691.1739516614
2127,149445.88088788078
2128,129351.66999101164
2129,126478.34013759947
2130,125298.5638024536
2131,153029.04511224665
2132,123617.08655895677
2133,127083.24321511993
2134,125825.97804644608
2135,126082.058958736
2136,114454.77051716695
2137,132548.4168008712
2138,130833.48960519212
2139,145816.13327126479
2140,135102.81213816354
2141,140225.9408217944
2142,126276.35484322578
2143,135805.33847417502
2144,135074.702257071
2145,151906.60493062032
2146,162920.68227088626
2147,168749.16250703446
2148,172855.62499595952
2149,174074.07091260856
2150,230715.7116683974
2151,144787.88602789445
2152,211615.85571745012
2153,203906.9422858822
2154,142062.1696285798
2155,142349.57690675737
2156,223142.48872044293
2157,251493.90925475734
2158,222830.72388117452
2159,197230.1447362113
2160,186038.64056996087
2161,256808.7632969337
2162,300631.67814885546
2163,290202.67584355443
2164,224085.15787525536
2165,159292.38506678742
2166,154200.1918029604
2167,213826.19112878654
2168,199603.3711084177
2169,202662.74990316434
2170,214708.7096630618
2171,139672.37672052553
2172,133865.6894574662
2173,159920.09911345103
2174,227873.03287916287
2175,278885.32734515535
2176,288324.6721254129
2177,227873.03287916287
2178,206135.99753450954
2179,160157.6225077736
2180,273596.6401379173
2181,193453.67072472698
2182,242406.64167334203
2183,202066.06749000464
2184,129033.64244433105
2185,130975.46228257492
2186,150465.6320613528
2187,142940.56678409796
2188,151918.9691367147
2189,219484.51897207566
2190,120315.03746477189
2191,120315.03746477189
2192,119288.48179457354
2193,124406.18565986755
2194,127384.31425029309
2195,128009.2979757146
2196,124705.28160997274
2197,129981.66737580964
2198,162729.36520864564
2199,159954.46624535217
2200,129515.2237405946
2201,149548.73252984323
2202,164959.3660951927
2203,139065.1246240903
2204,164099.35236737732
2205,113217.63567082837
2206,135951.2377057751
2207,245953.24134762128
2208,206321.07222215703
2209,206978.34741276008
2210,157292.22752307038
2211,126785.15990480845
2212,127771.585399346
2213,118585.59278906767
2214,154094.80958193727
2215,126455.36393412082
2216,167398.45862139057
2217,120744.41611837532
2218,106507.2223021626
2219,118540.19544959968
2220,111781.44561615326
2221,257906.62194965294
2222,251493.90925475734
2223,280144.61795271677
2224,251794.570869251
2225,156527.36901824764
2226,232605.062418005
2227,192661.8694359578
2228,250485.15166619932
2229,215766.44394199556
2230,156630.1573496
2231,216517.80176709418
2232,211826.86483164504
2233,184676.1262784918
2234,213826.19112878654
2235,232643.95306902626
2236,251377.70259212668
2237,298753.67443071393
2238,224211.93122615406
2239,133040.0985173791
2240,170211.77284283776
2241,187422.29564024872
2242,147816.00857036526
2243,143061.20100178337
2244,144007.75170005238
2245,146924.9734185899
2246,127579.25818367997
2247,153725.4989579322
2248,141821.61797116642
2249,144835.9988713265
2250,136005.66285687828
2251,131858.05519581732
2252,200691.94982708048
2253,150166.1013631646
2254,174464.3514752259
2255,184428.67430296625
2256,177503.65201674297
2257,202479.14869959792
2258,151828.75614397973
2259,178009.05570376696
2260,143325.03047832943
2261,164017.02834120538
2262,193812.80483226664
2263,284559.47229021584
2264,298753.67443071393
2265,201633.18187230374
2266,236328.66843124706
2267,286681.0941773832
2268,304503.2532873073
2269,180146.30633413763
2270,181924.73743474076
2271,239327.1701968568
2272,204512.65480040677
2273,143816.61541812398
2274,190726.07621594964
2275,201494.4210864544
2276,189718.49616576292
2277,172842.76954015484
2278,148590.95415977485
2279,129367.39380600626
2280,127834.16670049568
2281,176912.51914326995
2282,193700.02468446866
2283,125767.620943254
2284,118041.4862124394
2285,155574.2724894882
2286,124305.37523236441
2287,290202.67584355443
2288,278252.5907122453
2289,304503.2532873073
2290,304503.2532873073
2291,266433.1554387055
2292,302625.24956916575
2293,304503.2532873073
2294,298308.4631661806
2295,304503.2532873073
2296,270473.5025165051
2297,281762.15494597325
2298,282124.16585069714
2299,298308.4631661806
2300,284200.9376308169
2301,253672.57458739253
2302,248607.14794805783
2303,232884.85277676015
2304,249894.30305973667
2305,182821.13982100273
2306,190899.64981386004
2307,176912.51914326995
2308,238986.60418700954
2309,238322.23985155733
2310,205483.06672771025
2311,211020.43916412373
2312,169675.60521876294
2313,161837.4045326052
2314,186342.4381776742
2315,170002.49706636055
2316,225342.53094374586
2317,187325.8119408591
2318,170431.58445275982
2319,174395.92762772122
2320,196016.45598724968
2321,232163.66786811268
2322,189209.18762533396
2323,169827.5664943518
2324,179335.46756485224
2325,229065.41754580277
2326,171921.98148795468
2327,215422.01408122075
2328,217571.75827906097
2329,192255.4680211401
2330,184428.67430296625
2331,298753.67443071393
2332,280242.6858872307
2333,284200.9376308169
2334,250301.09865545682
2335,220531.91432149903
2336,284200.9376308169
2337,195260.4767532528
2338,264887.273289791
2339,240200.24356969885
2340,300631.67814885546
2341,228309.4383118059
2342,223256.98438966335
2343,237108.600468868
2344,247740.4062106925
2345,249894.30305973667
2346,203279.70687269396
2347,198673.80020632414
2348,211374.27215773545
2349,174497.49813396618
2350,273232.1176332589
2351,230725.55805400654
2352,262565.0565455787
2353,267301.45244565175
2354,137523.33057028454
2355,151779.84083696615
2356,151145.40300928804
2357,221192.21527973737
2358,192992.00336920688
2359,130097.19585907976
2360,121546.27322535435
2361,137766.48820402648
2362,232478.93954553266
2363,134801.0505872865
2364,158147.55841142536
2365,198711.81937341564
2366,175311.32887307514
2367,223140.77772703272
2368,210904.23250149307
2369,218534.8710606629
2370,163452.96513472343
2371,173402.4896050401
2372,195223.62244609435
2373,224092.7214904873
2374,262061.9921179076
2375,222652.70485090718
2376,251493.90925475734
2377,280197.1837928719
2378,128386.74084648064
2379,192226.31790328163
2380,147761.64578349143
2381,151355.89173878788
2382,185659.6842251243
2383,225112.6012911569
2384,219852.59315012253
2385,147113.552478711
2386,131124.37646220718
2387,132804.00257848806
2388,166997.5903640387
2389,137093.88543763844
2390,143928.1898558267
2391,146768.5662558631
2392,117294.11571697521
2393,183065.74994780764
2394,152700.30860474127
2395,183708.41629645153
2396,143232.58761921956
2397,209112.0528447877
2398,136650.00769675936
2399,116224.22732871285
2400,111840.74384070073
2401,125414.19182394068
2402,127253.04746436469
2403,217515.05327890816
2404,167596.55913348426
2405,157012.23378329666
2406,137287.23463139348
2407,141109.1680248212
2408,137766.48820402648
2409,130333.5288335756
2410,156943.85787084623
2411,123461.46446157698
2412,154938.9749271619
2413,137197.90054578942
2414,130848.5476006558
2415,171138.04268831733
2416,122266.49548704775
2417,121216.72235699143
2418,130466.72762184638
2419,116737.25702763919
2420,133705.76974834976
2421,151049.36769400124
2422,117485.18012383084
2423,149388.48006192068
2424,158257.6598782143
2425,264669.6948779664
2426,159090.65840358968
2427,138959.9344249314
2428,179352.96563276977
2429,118493.59146081058
2430,140141.00022944272
2431,144453.95332973803
2432,149607.79537094483
2433,139876.82141653204
2434,143094.4254696141
2435,164668.07045657837
2436,121531.01827578357
2437,113561.83093873496
2438,134126.9210523273
2439,129831.08862307268
2440,127845.85192176931
2441,124359.05371179344
2442,126980.52386543457
2443,125058.02686854871
2444,133274.36838000428
2445,109707.0384086731
2446,131858.05519581732
2447,222231.55479577786
2448,141797.65564689523
2449,116015.89075140218
2450,155649.29511525173
2451,135902.34738327525
2452,206179.84440947298
2453,117353.92632913313
2454,156097.33896432802
2455,130417.13263791637
2456,123578.14822416502
2457,133965.25596226356
2458,132372.57705519008
2459,115645.5549619531
2460,135396.32583118902
2461,108165.09987292268
2462,139774.35400670138
2463,118961.93721978008
2464,178704.47827573807
2465,123813.57531877483
2466,120689.60834422517
2467,172663.0407033004
2468,119646.88417597809
2469,109485.35089258812
2470,190080.5570984052
2471,189064.05904028114
2472,223021.53058530475
2473,137100.77576864295
2474,119380.64579266415
2475,196524.0462351288
2476,119850.63085789088
2477,126102.79999452096
2478,153074.06280757597
2479,131110.47205051576
2480,136835.56163473346
2481,126276.35484322578
2482,147699.73831329003
2483,120627.2968928382
2484,125144.90659545471
2485,124397.55792801388
2486,160962.13685579534
2487,202724.89439293576
2488,154127.38266205692
2489,166655.0238503927
2490,136405.31577891976
2491,121202.81794530003
2492,173132.21636288837
2493,155681.86695046545
2494,158993.17242593452
2495,125959.4339110981
2496,181927.2114913999
2497,138855.2560159288
2498,120066.80623443137
2499,125699.38470012393
2500,134099.82555710583
2501,132524.51954849745
2502,158608.076634211
2503,118104.94564022767
2504,173145.32053061656
2505,222830.72388117452
2506,282124.16585069714
2507,285894.1968093101
2508,282124.16585069714
2509,244400.2130936523
2510,237108.600468868
2511,189603.74329235408
2512,209645.3338014292
2513,233447.98326972048
2514,172954.44581068
2515,140780.86910418657
2516,171978.78755557755
2517,152142.70086951138
2518,137575.10235317424
2519,218835.3955452143
2520,206742.91140667116
2521,202811.8152649996
2522,214300.6865684602
2523,136159.96420739256
2524,152122.06912942394
2525,135118.12987696557
2526,137689.8301414061
2527,126536.1958803307
2528,134724.39252466612
2529,135247.20721425087
2530,141761.25069037877
2531,256028.61823151144
2532,241978.0205824348
2533,205110.6248246751
2534,222652.70485090718
2535,250326.7942507137
2536,232099.04883911848
2537,199183.43359834797
2538,184615.82328552852
2539,178896.42133867092
2540,184423.90108492685
2541,186038.64056996087
2542,157567.9477502904
2543,152033.03422465688
2544,122032.64476404354
2545,133693.54108315508
2546,142355.52440811865
2547,152969.6670629112
2548,159940.692471319
2549,161432.82796780003
2550,304503.2532873073
2551,155239.15740488246
2552,128392.32041436622
2553,120315.03746477189
2554,118974.83764334291
2555,130198.18145596454
2556,127870.28784332876
2557,128792.52857655569
2558,150086.3850062673
2559,132991.38695582922
2560,144050.4513251518
2561,161575.37109657537
2562,130774.63050439315
2563,141418.11152236958
2564,182753.63825672527
2565,142677.2202670813
2566,168173.93458532135
2567,128877.85015943629
2568,202607.43299101572
2569,204043.00467374217
2570,157292.22752307038
2571,210451.97141867733
2572,159181.74195761222
2573,219698.16413318634
2574,238123.97484029047
2575,139874.05899691614
2576,147089.6705022452
2577,168143.9004410767
2578,108049.16083791302
2579,110123.56804539317
2580,158167.15846153017
2581,163620.17067819161
2582,135252.85303149512
2583,251377.70259212668
2584,182673.33657813174
2585,213373.5848642206
2586,212155.18722735837
2587,229059.70761067662
2588,139801.18352370613
2589,146650.11316834914
2590,241866.04086766054
2591,175149.01379761135
2592,228162.7394477597
2593,240200.24356969885
2594,177364.41777555578
2595,196508.45951839935
2596,302625.24956916575
2597,207152.13215526156
2598,222830.72388117452
2599,282124.16585069714
2600,267506.2121940284
2601,138472.5771105592
2602,118755.28568327313
2603,139987.76242109964
2604,121748.39794591643
2605,117121.07485559536
2606,159908.34942387737
2607,185542.62126614316
2608,180475.153031751
2609,148819.34997451564
2610,139308.44124972314
2611,155037.8265670881
2612,151812.74521593578
2613,128527.80406891623
2614,128373.50271840194
2615,146891.58410883058
2616,136334.8715112561
2617,273498.8929850467
2618,208744.40665114316
2619,216595.3168072139
2620,170114.1284864518
2621,186391.33622509456
2622,186453.9515086504
2623,220680.9796833343
2624,300186.4668843221
2625,250591.26705425244
2626,165921.98484039263
2627,175237.98698226947
2628,272743.513262001
2629,300186.4668843221
2630,281762.15494597325
2631,304503.2532873073
2632,264196.61706116505
2633,251493.90925475734
2634,302625.24956916575
2635,158555.43639066766
2636,198858.18397485928
2637,185031.96968881373
2638,223338.32390240877
2639,165987.74226532478
2640,141099.7734031854
2641,121616.11512732346
2642,224451.6563646559
2643,127292.24294928652
2644,145591.08052550806
2645,122254.35410815188
2646,119218.75033936105
2647,125767.620943254
2648,143982.2536276265
2649,152401.18588796066
2650,136099.55033706938
2651,146939.59610782278
2652,300631.67814885546
2653,251059.18444034038
2654,267722.0442271055
2655,302625.24956916575
2656,264196.61706116505
2657,250326.7942507137
2658,227514.4982197639
2659,266074.62077930657
2660,294436.88802772877
2661,288324.6721254129
2662,288324.6721254129
2663,274585.3998302918
2664,233787.53087480323
2665,290202.67584355443
2666,249828.11195679565
2667,161837.4045326052
2668,181958.47906645405
2669,183322.44636951183
2670,264555.151720564
2671,181958.47906645405
2672,202825.72250863578
2673,206790.32936627296
2674,206790.32936627296
2675,168898.61617817954
2676,179625.92787506527
2677,191650.3018272081
2678,261994.45927579972
2679,279884.1512278317
2680,280242.6858872307
2681,302625.24956916575
2682,279884.1512278317
2683,298308.4631661806
2684,279884.1512278317
2685,276906.0204967797
2686,257456.0854515378
2687,286331.1007051026
2688,225063.79041818916
2689,203279.70687269396
2690,300631.67814885546
2691,198429.00982200733
2692,149454.94290753308
2693,199453.73224394512
2694,137523.33057028454
2695,195590.18774075774
2696,175545.76637155845
2697,213880.4969586914
2698,190013.8726381549
2699,184105.58498886492
2700,176693.2687415854
2701,158290.66694339304
2702,133641.17458341332
2703,141506.93888370902
2704,150357.69256390163
2705,127579.25818367997
2706,121471.7200512361
2707,125144.90659545471
2708,127579.25818367997
2709,128513.48787187222
2710,133705.76974834976
2711,235271.76907487403
2712,281222.80689976487
2713,181720.4607804548
2714,167312.27483990203
2715,160846.44875233193
2716,167312.27483990203
2717,206135.99753450954
2718,229844.75804673575
2719,168721.96393724345
2720,170565.6566999833
2721,134443.65322637875
2722,159037.252170432
2723,149210.23366333294
2724,142582.3242010387
2725,129033.64244433105
2726,127227.49114958373
2727,172282.37222030282
2728,154074.43199826544
2729,149222.62624667177
2730,140960.7200375865
2731,128816.62967116412
2732,126512.94031129264
2733,166453.27665836347
2734,145622.0050549031
2735,148419.4427701232
2736,143968.7377912634
2737,125921.38061291988
2738,173597.95883966022
2739,165286.996495393
2740,129747.52794043449
2741,151364.4673556764
2742,148647.0693591673
2743,150648.68279958126
2744,142205.56935113703
2745,137287.23463139348
2746,149607.79537094483
2747,145230.20002503172
2748,132139.63366398241
2749,132047.89217758967
2750,121145.50933192084
2751,129825.87398806252
2752,238853.5420443207
2753,158893.04883019824
2754,297498.8137506377
2755,135104.4273888135
2756,119685.65234090757
2757,127810.82673326027
2758,119739.67119343505
2759,156751.032847518
2760,148238.20496203724
2761,140048.72512830936
2762,142351.35419781326
2763,167049.80912109106
2764,173167.4831345453
2765,206405.285043648
2766,124880.77389863358
2767,118553.15715727252
2768,175883.42285787038
2769,144442.3492006842
2770,153533.0819613672
2771,122526.72238577425
2772,139000.82271015478
2773,197982.91758378764
2774,133077.42903689266
2775,146525.31309375755
2776,149312.20079630642
2777,159749.04609617518
2778,145195.34821801525
2779,155397.31511209722
2780,116225.66361036836
2781,108049.16083791302
2782,113601.67347943636
2783,108581.62950964275
2784,141454.10483022017
2785,119927.61272001328
2786,112794.49740535523
2787,121012.09640117755
2788,108049.16083791302
2789,196497.51887379138
2790,114454.77051716695
2791,131181.25843207043
2792,114818.87243112625
2793,165639.31984276284
2794,119974.36189267524
2795,122722.88130289309
2796,113235.82987680435
2797,192755.08860107829
2798,127183.06116045809
2799,129077.94599286428
2800,113915.15104818088
2801,118480.06333361033
2802,136582.08096309495
2803,174733.56068779316
2804,193488.41569519526
2805,121688.12435183139
2806,108049.16083791302
2807,164542.88262333733
2808,139890.84361967203
2809,144136.58625187626
2810,129712.96361570759
2811,146556.3353412912
2812,159483.7105390391
2813,188693.00481739352
2814,183385.8579962153
2815,118709.99576140585
2816,209928.1673172594
2817,142567.7709618875
2818,143306.2061496667
2819,181695.86456190268
2820,154198.3858175037
2821,124493.18695277908
2822,243968.56111086343
2823,250097.1442760081
2824,206230.60764208468
2825,167390.0518086169
2826,128611.41457200938
2827,127901.59094255006
2828,204654.70112360205
2829,204598.50081791184
2830,262316.87678534805
2831,195433.09174365806
2832,245085.5914160359
2833,252478.72308650962
2834,214857.77502489707
2835,234450.66471310554
2836,191853.19761325972
2837,164835.63785174748
2838,140006.98240416992
2839,165296.86708936642
2840,201401.70315455244
2841,204961.55946283982
2842,218835.3955452143
2843,150211.4028167992
2844,189291.1552290839
2845,122704.97283996962
2846,209496.26843959393
2847,198815.7490626194
2848,193093.0410358848
2849,202811.8152649996
2850,264196.61706116505
2851,219925.0004493374
2852,245407.85501930374
2853,241619.48592303583
2854,160157.6225077736
2855,204945.50417065565
2856,211881.87217896967
2857,191899.7219919054
2858,204586.96951125667
2859,154854.21380207015
2860,161396.15239755466
2861,130792.70674615892
2862,213678.97092629035
2863,154327.12336274132
2864,220680.9796833343
2865,155239.15740488246
2866,187426.06114580328
2867,110906.51415250848
2868,128700.88528817412
2869,128170.22097025339
2870,160981.53755235125
2871,129733.5360974811
2872,111463.76786682215
2873,132132.73264591018
2874,142739.75436737714
2875,124009.7081417301
2876,161807.24695109707
2877,123224.15659497344
2878,178965.1162563437
2879,138916.21870282543
2880,114271.78368339731
2881,137557.34043628114
2882,152436.93201117718
2883,179940.883100234
2884,208757.55125649952
2885,150197.88859991523
2886,193052.04441499352
2887,118884.88782719194
2888,129979.55735379693
2889,113915.15104818088
2890,111161.4226693242
2891,136322.22199179596
2892,113915.15104818088
2893,121686.7278504545
2894,113915.15104818088
2895,244964.98989723108
2896,251493.90925475734
2897,221843.5085241159
2898,186061.93913443357
2899,212122.1583657673
2900,163671.92841159433
2901,195605.71232546328
2902,191612.73893092872
2903,302625.24956916575
2904,288324.6721254129
2905,172861.63132495637
2906,224211.93122615406
2907,128034.63786945424
2908,129825.87398806252
2909,242830.45583267164
2910,139987.76242109964
2911,118755.28568327313
2912,144017.4200885103
2913,119614.6925138888
2914,115640.85981347259
2915,115640.85981347259
2916,116178.08374140703
2917,175427.56746208062
2918,149060.28749795808
2919,264196.61706116505
